firmware/simulation/.Xil/Vivado-17517-franss-Vostro-460/hw_ila_data_1/zip_work/waveform.vcd
$date
        2018-Jun-13 14:12:09
$end
$version
        Vivado v2016.4 (64-bit)
$end
$timescale
        1ps
$end
$scope module dut $end
$var reg 64 " TX_Data_Pipelined [63:0] $end
$var reg 5 b TX_Info_Pipelined [4:0] $end
$var reg 64 g RX_Data [63:0] $end
$var reg 5 I" RX_Info [4:0] $end
$var reg 1 N" _TRIGGER $end
$var reg 1 O" _WINDOW $end
$var reg 1 P" _GAP $end
$upscope $end
$enddefinitions $end
#0
$dumpvars
b1111100100101010100110011100010000 "
b11110 b
b1111100100101010100110011100010000 g
b1111 I"
1N"
1O"
0P"
$end
#1
b1111100100101010100110011100010001 "
b11101 b
#2
b1111100100101010100110011100010010 "
b11100 b
#3
b1111100100101010100110011100010011 "
#4
b1111100100101010100110011100010100 "
#5
b1111100100101010100110011100010101 "
#6
b1111100100101010100110011100010110 "
#7
b1111100100101010100110011100010111 "
#8
b1111100100101010100110011100011000 "
#9
b1111100100101010100110011100011001 "
#10
b1111100100101010100110011100011010 "
#11
b1111100100101010100110011100011011 "
#12
b1111100100101010100110011100011100 "
#13
b1111100100101010100110011100011101 "
#14
b1111100100101010100110011100011110 "
#15
b1111100100101010100110011100011111 "
#16
b1111100100101010100110011100100000 "
b11110 b
b1111100100101010100110011100100001 g
b10000 I"
#17
b1111100100101010100110011100100001 "
b11101 b
b1111100100101010100110011100100010 g
b0 I"
#18
b1111100100101010100110011100100010 "
b11100 b
b1111100100101010100110011100100011 g
#19
b1111100100101010100110011100100011 "
b1111100100101010100110011100100100 g
#20
b1111100100101010100110011100100100 "
b1111100100101010100110011100100101 g
#21
b1111100100101010100110011100100101 "
b1111100100101010100110011100100110 g
#22
b1111100100101010100110011100100110 "
b1111100100101010100110011100100111 g
#23
b1111100100101010100110011100100111 "
b1111100100101010100110011100101000 g
#24
b1111100100101010100110011100101000 "
b1111100100101010100110011100101001 g
#25
b1111100100101010100110011100101001 "
b1111100100101010100110011100101010 g
#26
b1111100100101010100110011100101010 "
b1111100100101010100110011100101011 g
#27
b1111100100101010100110011100101011 "
b1111100100101010100110011100101100 g
#28
b1111100100101010100110011100101100 "
b1111100100101010100110011100101101 g
#29
b1111100100101010100110011100101101 "
b1111100100101010100110011100101110 g
#30
b1111100100101010100110011100101110 "
b1111100100101010100110011100101111 g
#31
b1111100100101010100110011100101111 "
b1111100100101010100110011100110000 g
b1111 I"
#32
b1111100100101010100110011100110000 "
b11110 b
#33
b1111100100101010100110011100110001 "
b11101 b
b1111100100101010100110011100110001 g
b10000 I"
#34
b1111100100101010100110011100110010 "
b11100 b
b1111100100101010100110011100110010 g
b0 I"
#35
b1111100100101010100110011100110011 "
b1111100100101010100110011100110011 g
#36
b1111100100101010100110011100110100 "
b1111100100101010100110011100110100 g
#37
b1111100100101010100110011100110101 "
b1111100100101010100110011100110101 g
#38
b1111100100101010100110011100110110 "
b1111100100101010100110011100110110 g
#39
b1111100100101010100110011100110111 "
b1111100100101010100110011100110111 g
#40
b1111100100101010100110011100111000 "
b1111100100101010100110011100111000 g
#41
b1111100100101010100110011100111001 "
b1111100100101010100110011100111001 g
#42
b1111100100101010100110011100111010 "
b1111100100101010100110011100111010 g
#43
b1111100100101010100110011100111011 "
b1111100100101010100110011100111011 g
#44
b1111100100101010100110011100111100 "
b1111100100101010100110011100111100 g
#45
b1111100100101010100110011100111101 "
b1111100100101010100110011100111101 g
#46
b1111100100101010100110011100111110 "
b1111100100101010100110011100111110 g
#47
b1111100100101010100110011100111111 "
b1111100100101010100110011100111111 g
#48
b1111100100101010100110011101000000 "
b11110 b
b1111100100101010100110011101000000 g
b1111 I"
#49
b1111100100101010100110011101000001 "
b11101 b
b1111100100101010100110011101000001 g
b10000 I"
#50
b1111100100101010100110011101000010 "
b11100 b
b1111100100101010100110011101000010 g
b0 I"
#51
b1111100100101010100110011101000011 "
b1111100100101010100110011101000011 g
#52
b1111100100101010100110011101000100 "
b1111100100101010100110011101000100 g
#53
b1111100100101010100110011101000101 "
b1111100100101010100110011101000101 g
#54
b1111100100101010100110011101000110 "
b1111100100101010100110011101000110 g
#55
b1111100100101010100110011101000111 "
b1111100100101010100110011101000111 g
#56
b1111100100101010100110011101001000 "
b1111100100101010100110011101001000 g
#57
b1111100100101010100110011101001001 "
b1111100100101010100110011101001001 g
#58
b1111100100101010100110011101001010 "
b1111100100101010100110011101001010 g
#59
b1111100100101010100110011101001011 "
b1111100100101010100110011101001011 g
#60
b1111100100101010100110011101001100 "
b1111100100101010100110011101001100 g
#61
b1111100100101010100110011101001101 "
b1111100100101010100110011101001101 g
#62
b1111100100101010100110011101001110 "
b1111100100101010100110011101001110 g
#63
b1111100100101010100110011101001111 "
b1111100100101010100110011101001111 g
#64
b1111100100101010100110011101010000 "
b11110 b
b1111100100101010100110011101010000 g
#65
b1111100100101010100110011101010001 "
b11101 b
b1111100100101010100110011101010001 g
b10000 I"
#66
b1111100100101010100110011101010010 "
b11100 b
b1111100100101010100110011101010010 g
b0 I"
#67
b1111100100101010100110011101010011 "
b1111100100101010100110011101010011 g
#68
b1111100100101010100110011101010100 "
b1111100100101010100110011101010100 g
#69
b1111100100101010100110011101010101 "
b1111100100101010100110011101010101 g
#70
b1111100100101010100110011101010110 "
b1111100100101010100110011101010110 g
#71
b1111100100101010100110011101010111 "
b1111100100101010100110011101010111 g
#72
b1111100100101010100110011101011000 "
b1111100100101010100110011101011000 g
#73
b1111100100101010100110011101011001 "
b1111100100101010100110011101011001 g
#74
b1111100100101010100110011101011010 "
b1111100100101010100110011101011010 g
#75
b1111100100101010100110011101011011 "
b1111100100101010100110011101011011 g
#76
b1111100100101010100110011101011100 "
b1111100100101010100110011101011100 g
#77
b1111100100101010100110011101011101 "
b1111100100101010100110011101011101 g
#78
b1111100100101010100110011101011110 "
b1111100100101010100110011101011110 g
#79
b1111100100101010100110011101011111 "
b1111100100101010100110011101011111 g
#80
b1111100100101010100110011101100000 "
b11110 b
b1111100100101010100110011101100000 g
#81
b1111100100101010100110011101100001 "
b11101 b
b1111100100101010100110011101100001 g
#82
b1111100100101010100110011101100010 "
b11100 b
b1111100100101010100110011101100010 g
#83
b1111100100101010100110011101100011 "
b1111100100101010100110011101100011 g
#84
b1111100100101010100110011101100100 "
b1111100100101010100110011101100100 g
#85
b1111100100101010100110011101100101 "
b1111100100101010100110011101100101 g
#86
b1111100100101010100110011101100110 "
b1111100100101010100110011101100110 g
#87
b1111100100101010100110011101100111 "
b1111100100101010100110011101100111 g
#88
b1111100100101010100110011101101000 "
b1111100100101010100110011101101000 g
#89
b1111100100101010100110011101101001 "
b1111100100101010100110011101101001 g
#90
b1111100100101010100110011101101010 "
b1111100100101010100110011101101010 g
#91
b1111100100101010100110011101101011 "
b1111100100101010100110011101101011 g
#92
b1111100100101010100110011101101100 "
b1111100100101010100110011101101100 g
#93
b1111100100101010100110011101101101 "
b1111100100101010100110011101101101 g
#94
b1111100100101010100110011101101110 "
b1111100100101010100110011101101110 g
#95
b1111100100101010100110011101101111 "
b1111100100101010100110011101101111 g
#96
b1111100100101010100110011101110000 "
b11110 b
b1111100100101010100110011101110000 g
b1111 I"
#97
b1111100100101010100110011101110001 "
b11101 b
b1111100100101010100110011101110001 g
b10000 I"
#98
b1111100100101010100110011101110010 "
b11100 b
b1111100100101010100110011101110010 g
b0 I"
#99
b1111100100101010100110011101110011 "
b1111100100101010100110011101110011 g
#100
b1111100100101010100110011101110100 "
b1111100100101010100110011101110100 g
#101
b1111100100101010100110011101110101 "
b1111100100101010100110011101110101 g
#102
b1111100100101010100110011101110110 "
b1111100100101010100110011101110110 g
#103
b1111100100101010100110011101110111 "
b1111100100101010100110011101110111 g
#104
b1111100100101010100110011101111000 "
b1111100100101010100110011101111000 g
#105
b1111100100101010100110011101111001 "
b1111100100101010100110011101111001 g
#106
b1111100100101010100110011101111010 "
b1111100100101010100110011101111010 g
#107
b1111100100101010100110011101111011 "
b1111100100101010100110011101111011 g
#108
b1111100100101010100110011101111100 "
b1111100100101010100110011101111100 g
#109
b1111100100101010100110011101111101 "
b1111100100101010100110011101111101 g
#110
b1111100100101010100110011101111110 "
b1111100100101010100110011101111110 g
#111
b1111100100101010100110011101111111 "
b1111100100101010100110011101111111 g
#112
b1111100100101010100110011110000000 "
b11110 b
b1111100100101010100110011110000000 g
b1111 I"
#113
b1111100100101010100110011110000001 "
b11101 b
b1111100100101010100110011110000001 g
b10000 I"
#114
b1111100100101010100110011110000010 "
b11100 b
b1111100100101010100110011110000010 g
b0 I"
#115
b1111100100101010100110011110000011 "
b1111100100101010100110011110000011 g
#116
b1111100100101010100110011110000100 "
b1111100100101010100110011110000100 g
#117
b1111100100101010100110011110000101 "
b1111100100101010100110011110000101 g
#118
b1111100100101010100110011110000110 "
b1111100100101010100110011110000110 g
#119
b1111100100101010100110011110000111 "
b1111100100101010100110011110000111 g
#120
b1111100100101010100110011110001000 "
b1111100100101010100110011110001000 g
#121
b1111100100101010100110011110001001 "
b1111100100101010100110011110001001 g
#122
b1111100100101010100110011110001010 "
b1111100100101010100110011110001010 g
#123
b1111100100101010100110011110001011 "
b1111100100101010100110011110001011 g
#124
b1111100100101010100110011110001100 "
b1111100100101010100110011110001100 g
#125
b1111100100101010100110011110001101 "
b1111100100101010100110011110001101 g
#126
b1111100100101010100110011110001110 "
b1111100100101010100110011110001110 g
#127
b1111100100101010100110011110001111 "
b1111100100101010100110011110001111 g
#128
b1111100100101010100110011110010000 "
b11110 b
b1111100100101010100110011110010000 g
b1111 I"
#129
b1111100100101010100110011110010001 "
b11101 b
b1111100100101010100110011110010001 g
b10000 I"
#130
b1111100100101010100110011110010010 "
b11100 b
b1111100100101010100110011110010010 g
b0 I"
#131
b1111100100101010100110011110010011 "
b1111100100101010100110011110010011 g
#132
b1111100100101010100110011110010100 "
b1111100100101010100110011110010100 g
#133
b1111100100101010100110011110010101 "
b1111100100101010100110011110010101 g
#134
b1111100100101010100110011110010110 "
b1111100100101010100110011110010110 g
#135
b1111100100101010100110011110010111 "
b1111100100101010100110011110010111 g
#136
b1111100100101010100110011110011000 "
b1111100100101010100110011110011000 g
#137
b1111100100101010100110011110011001 "
b1111100100101010100110011110011001 g
#138
b1111100100101010100110011110011010 "
b1111100100101010100110011110011010 g
#139
b1111100100101010100110011110011011 "
b1111100100101010100110011110011011 g
#140
b1111100100101010100110011110011100 "
b1111100100101010100110011110011100 g
#141
b1111100100101010100110011110011101 "
b1111100100101010100110011110011101 g
#142
b1111100100101010100110011110011110 "
b1111100100101010100110011110011110 g
#143
b1111100100101010100110011110011111 "
b1111100100101010100110011110011111 g
#144
b1111100100101010100110011110100000 "
b11110 b
b1111100100101010100110011110100000 g
b1111 I"
#145
b1111100100101010100110011110100001 "
b11101 b
b1111100100101010100110011110100001 g
b10000 I"
#146
b1111100100101010100110011110100010 "
b11100 b
b1111100100101010100110011110100010 g
b0 I"
#147
b1111100100101010100110011110100011 "
b1111100100101010100110011110100011 g
#148
b1111100100101010100110011110100100 "
b1111100100101010100110011110100100 g
#149
b1111100100101010100110011110100101 "
b1111100100101010100110011110100101 g
#150
b1111100100101010100110011110100110 "
b1111100100101010100110011110100110 g
#151
b1111100100101010100110011110100111 "
b1111100100101010100110011110100111 g
#152
b1111100100101010100110011110101000 "
b1111100100101010100110011110101000 g
#153
b1111100100101010100110011110101001 "
b1111100100101010100110011110101001 g
#154
b1111100100101010100110011110101010 "
b1111100100101010100110011110101010 g
#155
b1111100100101010100110011110101011 "
b1111100100101010100110011110101011 g
#156
b1111100100101010100110011110101100 "
b1111100100101010100110011110101100 g
#157
b1111100100101010100110011110101101 "
b1111100100101010100110011110101101 g
#158
b1111100100101010100110011110101110 "
b1111100100101010100110011110101110 g
#159
b1111100100101010100110011110101111 "
b1111100100101010100110011110101111 g
#160
b1111100100101010100110011110110000 "
b11110 b
b1111100100101010100110011110110000 g
#161
b1111100100101010100110011110110001 "
b11101 b
b1111100100101010100110011110110001 g
#162
b1111100100101010100110011110110010 "
b11100 b
b1111100100101010100110011110110010 g
#163
b1111100100101010100110011110110011 "
b1111100100101010100110011110110011 g
#164
b1111100100101010100110011110110100 "
b1111100100101010100110011110110100 g
#165
b1111100100101010100110011110110101 "
b1111100100101010100110011110110101 g
#166
b1111100100101010100110011110110110 "
b1111100100101010100110011110110110 g
#167
b1111100100101010100110011110110111 "
b1111100100101010100110011110110111 g
#168
b1111100100101010100110011110111000 "
b1111100100101010100110011110111000 g
#169
b1111100100101010100110011110111001 "
b1111100100101010100110011110111001 g
#170
b1111100100101010100110011110111010 "
b1111100100101010100110011110111010 g
#171
b1111100100101010100110011110111011 "
b1111100100101010100110011110111011 g
#172
b1111100100101010100110011110111100 "
b1111100100101010100110011110111100 g
#173
b1111100100101010100110011110111101 "
b1111100100101010100110011110111101 g
#174
b1111100100101010100110011110111110 "
b1111100100101010100110011110111110 g
#175
b1111100100101010100110011110111111 "
b1111100100101010100110011110111111 g
#176
b1111100100101010100110011111000000 "
b11110 b
b1111100100101010100110011111000000 g
b1111 I"
#177
b1111100100101010100110011111000001 "
b11101 b
b1111100100101010100110011111000001 g
b10000 I"
#178
b1111100100101010100110011111000010 "
b11100 b
b1111100100101010100110011111000010 g
b0 I"
#179
b1111100100101010100110011111000011 "
b1111100100101010100110011111000011 g
#180
b1111100100101010100110011111000100 "
b1111100100101010100110011111000100 g
#181
b1111100100101010100110011111000101 "
b1111100100101010100110011111000101 g
#182
b1111100100101010100110011111000110 "
b1111100100101010100110011111000110 g
#183
b1111100100101010100110011111000111 "
b1111100100101010100110011111000111 g
#184
b1111100100101010100110011111001000 "
b1111100100101010100110011111001000 g
#185
b1111100100101010100110011111001001 "
b1111100100101010100110011111001001 g
#186
b1111100100101010100110011111001010 "
b1111100100101010100110011111001010 g
#187
b1111100100101010100110011111001011 "
b1111100100101010100110011111001011 g
#188
b1111100100101010100110011111001100 "
b1111100100101010100110011111001100 g
#189
b1111100100101010100110011111001101 "
b1111100100101010100110011111001101 g
#190
b1111100100101010100110011111001110 "
b1111100100101010100110011111001110 g
#191
b1111100100101010100110011111001111 "
b1111100100101010100110011111001111 g
#192
b1111100100101010100110011111010000 "
b11110 b
b1111100100101010100110011111010000 g
b1111 I"
#193
b1111100100101010100110011111010001 "
b11101 b
b1111100100101010100110011111010001 g
b10000 I"
#194
b1111100100101010100110011111010010 "
b11100 b
b1111100100101010100110011111010010 g
b0 I"
#195
b1111100100101010100110011111010011 "
b1111100100101010100110011111010011 g
#196
b1111100100101010100110011111010100 "
b1111100100101010100110011111010100 g
#197
b1111100100101010100110011111010101 "
b1111100100101010100110011111010101 g
#198
b1111100100101010100110011111010110 "
b1111100100101010100110011111010110 g
#199
b1111100100101010100110011111010111 "
b1111100100101010100110011111010111 g
#200
b1111100100101010100110011111011000 "
b1111100100101010100110011111011000 g
#201
b1111100100101010100110011111011001 "
b1111100100101010100110011111011001 g
#202
b1111100100101010100110011111011010 "
b1111100100101010100110011111011010 g
#203
b1111100100101010100110011111011011 "
b1111100100101010100110011111011011 g
#204
b1111100100101010100110011111011100 "
b1111100100101010100110011111011100 g
#205
b1111100100101010100110011111011101 "
b1111100100101010100110011111011101 g
#206
b1111100100101010100110011111011110 "
b1111100100101010100110011111011110 g
#207
b1111100100101010100110011111011111 "
b1111100100101010100110011111011111 g
#208
b1111100100101010100110011111100000 "
b11110 b
b1111100100101010100110011111100000 g
b1111 I"
#209
b1111100100101010100110011111100001 "
b11101 b
b1111100100101010100110011111100001 g
b10000 I"
#210
b1111100100101010100110011111100010 "
b11100 b
b1111100100101010100110011111100010 g
b0 I"
#211
b1111100100101010100110011111100011 "
b1111100100101010100110011111100011 g
#212
b1111100100101010100110011111100100 "
b1111100100101010100110011111100100 g
#213
b1111100100101010100110011111100101 "
b1111100100101010100110011111100101 g
#214
b1111100100101010100110011111100110 "
b1111100100101010100110011111100110 g
#215
b1111100100101010100110011111100111 "
b1111100100101010100110011111100111 g
#216
b1111100100101010100110011111101000 "
b1111100100101010100110011111101000 g
#217
b1111100100101010100110011111101001 "
b1111100100101010100110011111101001 g
#218
b1111100100101010100110011111101010 "
b1111100100101010100110011111101010 g
#219
b1111100100101010100110011111101011 "
b1111100100101010100110011111101011 g
#220
b1111100100101010100110011111101100 "
b1111100100101010100110011111101100 g
#221
b1111100100101010100110011111101101 "
b1111100100101010100110011111101101 g
#222
b1111100100101010100110011111101110 "
b1111100100101010100110011111101110 g
#223
b1111100100101010100110011111101111 "
b1111100100101010100110011111101111 g
#224
b1111100100101010100110011111110000 "
b11110 b
b1111100100101010100110011111110000 g
b1111 I"
#225
b1111100100101010100110011111110001 "
b11101 b
b1111100100101010100110011111110001 g
b10000 I"
#226
b1111100100101010100110011111110010 "
b11100 b
b1111100100101010100110011111110010 g
b0 I"
#227
b1111100100101010100110011111110011 "
b1111100100101010100110011111110011 g
#228
b1111100100101010100110011111110100 "
b1111100100101010100110011111110100 g
#229
b1111100100101010100110011111110101 "
b1111100100101010100110011111110101 g
#230
b1111100100101010100110011111110110 "
b1111100100101010100110011111110110 g
#231
b1111100100101010100110011111110111 "
b1111100100101010100110011111110111 g
#232
b1111100100101010100110011111111000 "
b1111100100101010100110011111111000 g
#233
b1111100100101010100110011111111001 "
b1111100100101010100110011111111001 g
#234
b1111100100101010100110011111111010 "
b1111100100101010100110011111111010 g
#235
b1111100100101010100110011111111011 "
b1111100100101010100110011111111011 g
#236
b1111100100101010100110011111111100 "
b1111100100101010100110011111111100 g
#237
b1111100100101010100110011111111101 "
b1111100100101010100110011111111101 g
#238
b1111100100101010100110011111111110 "
b1111100100101010100110011111111110 g
#239
b1111100100101010100110011111111111 "
b1111100100101010100110011111111111 g
#240
b1111100100101010100110100000000000 "
b11110 b
b1111100100101010100110100000000000 g
b1111 I"
#241
b1111100100101010100110100000000001 "
b11101 b
b1111100100101010100110100000000001 g
b10000 I"
#242
b1111100100101010100110100000000010 "
b11100 b
b1111100100101010100110100000000010 g
b0 I"
#243
b1111100100101010100110100000000011 "
b1111100100101010100110100000000011 g
#244
b1111100100101010100110100000000100 "
b1111100100101010100110100000000100 g
#245
b1111100100101010100110100000000101 "
b1111100100101010100110100000000101 g
#246
b1111100100101010100110100000000110 "
b1111100100101010100110100000000110 g
#247
b1111100100101010100110100000000111 "
b1111100100101010100110100000000111 g
#248
b1111100100101010100110100000001000 "
b1111100100101010100110100000001000 g
#249
b1111100100101010100110100000001001 "
b1111100100101010100110100000001001 g
#250
b1111100100101010100110100000001010 "
b1111100100101010100110100000001010 g
#251
b1111100100101010100110100000001011 "
b1111100100101010100110100000001011 g
#252
b1111100100101010100110100000001100 "
b1111100100101010100110100000001100 g
#253
b1111100100101010100110100000001101 "
b1111100100101010100110100000001101 g
#254
b1111100100101010100110100000001110 "
b1111100100101010100110100000001110 g
#255
b1111100100101010100110100000001111 "
b1111100100101010100110100000001111 g
#256
b1111100100101010100110100000010000 "
b11110 b
b1111100100101010100110100000010000 g
b1111 I"
#257
b1111100100101010100110100000010001 "
b11101 b
b1111100100101010100110100000010001 g
b10000 I"
#258
b1111100100101010100110100000010010 "
b11100 b
b1111100100101010100110100000010010 g
b0 I"
#259
b1111100100101010100110100000010011 "
b1111100100101010100110100000010011 g
#260
b1111100100101010100110100000010100 "
b1111100100101010100110100000010100 g
#261
b1111100100101010100110100000010101 "
b1111100100101010100110100000010101 g
#262
b1111100100101010100110100000010110 "
b1111100100101010100110100000010110 g
#263
b1111100100101010100110100000010111 "
b1111100100101010100110100000010111 g
#264
b1111100100101010100110100000011000 "
b1111100100101010100110100000011000 g
#265
b1111100100101010100110100000011001 "
b1111100100101010100110100000011001 g
#266
b1111100100101010100110100000011010 "
b1111100100101010100110100000011010 g
#267
b1111100100101010100110100000011011 "
b1111100100101010100110100000011011 g
#268
b1111100100101010100110100000011100 "
b1111100100101010100110100000011100 g
#269
b1111100100101010100110100000011101 "
b1111100100101010100110100000011101 g
#270
b1111100100101010100110100000011110 "
b1111100100101010100110100000011110 g
#271
b1111100100101010100110100000011111 "
b1111100100101010100110100000011111 g
#272
b1111100100101010100110100000100000 "
b11110 b
b1111100100101010100110100000100000 g
b1111 I"
#273
b1111100100101010100110100000100001 "
b11101 b
b1111100100101010100110100000100001 g
b10000 I"
#274
b1111100100101010100110100000100010 "
b11100 b
b1111100100101010100110100000100010 g
b0 I"
#275
b1111100100101010100110100000100011 "
b1111100100101010100110100000100011 g
#276
b1111100100101010100110100000100100 "
b1111100100101010100110100000100100 g
#277
b1111100100101010100110100000100101 "
b1111100100101010100110100000100101 g
#278
b1111100100101010100110100000100110 "
b1111100100101010100110100000100110 g
#279
b1111100100101010100110100000100111 "
b1111100100101010100110100000100111 g
#280
b1111100100101010100110100000101000 "
b1111100100101010100110100000101000 g
#281
b1111100100101010100110100000101001 "
b1111100100101010100110100000101001 g
#282
b1111100100101010100110100000101010 "
b1111100100101010100110100000101010 g
#283
b1111100100101010100110100000101011 "
b1111100100101010100110100000101011 g
#284
b1111100100101010100110100000101100 "
b1111100100101010100110100000101100 g
#285
b1111100100101010100110100000101101 "
b1111100100101010100110100000101101 g
#286
b1111100100101010100110100000101110 "
b1111100100101010100110100000101110 g
#287
b1111100100101010100110100000101111 "
b1111100100101010100110100000101111 g
#288
b1111100100101010100110100000110000 "
b11110 b
b1111100100101010100110100000110000 g
#289
b1111100100101010100110100000110001 "
b11101 b
b1111100100101010100110100000110001 g
b10000 I"
#290
b1111100100101010100110100000110010 "
b11100 b
b1111100100101010100110100000110010 g
b0 I"
#291
b1111100100101010100110100000110011 "
b1111100100101010100110100000110011 g
#292
b1111100100101010100110100000110100 "
b1111100100101010100110100000110100 g
#293
b1111100100101010100110100000110101 "
b1111100100101010100110100000110101 g
#294
b1111100100101010100110100000110110 "
b1111100100101010100110100000110110 g
#295
b1111100100101010100110100000110111 "
b1111100100101010100110100000110111 g
#296
b1111100100101010100110100000111000 "
b1111100100101010100110100000111000 g
#297
b1111100100101010100110100000111001 "
b1111100100101010100110100000111001 g
#298
b1111100100101010100110100000111010 "
b1111100100101010100110100000111010 g
#299
b1111100100101010100110100000111011 "
b1111100100101010100110100000111011 g
#300
b1111100100101010100110100000111100 "
b1111100100101010100110100000111100 g
#301
b1111100100101010100110100000111101 "
b1111100100101010100110100000111101 g
#302
b1111100100101010100110100000111110 "
b1111100100101010100110100000111110 g
#303
b1111100100101010100110100000111111 "
b1111100100101010100110100000111111 g
#304
b1111100100101010100110100001000000 "
b11110 b
b1111100100101010100110100001000000 g
b1111 I"
#305
b1111100100101010100110100001000001 "
b11101 b
b1111100100101010100110100001000001 g
b10000 I"
#306
b1111100100101010100110100001000010 "
b11100 b
b1111100100101010100110100001000010 g
b0 I"
#307
b1111100100101010100110100001000011 "
b1111100100101010100110100001000011 g
#308
b1111100100101010100110100001000100 "
b1111100100101010100110100001000100 g
#309
b1111100100101010100110100001000101 "
b1111100100101010100110100001000101 g
#310
b1111100100101010100110100001000110 "
b1111100100101010100110100001000110 g
#311
b1111100100101010100110100001000111 "
b1111100100101010100110100001000111 g
#312
b1111100100101010100110100001001000 "
b1111100100101010100110100001001000 g
#313
b1111100100101010100110100001001001 "
b1111100100101010100110100001001001 g
#314
b1111100100101010100110100001001010 "
b1111100100101010100110100001001010 g
#315
b1111100100101010100110100001001011 "
b1111100100101010100110100001001011 g
#316
b1111100100101010100110100001001100 "
b1111100100101010100110100001001100 g
#317
b1111100100101010100110100001001101 "
b1111100100101010100110100001001101 g
#318
b1111100100101010100110100001001110 "
b1111100100101010100110100001001110 g
#319
b1111100100101010100110100001001111 "
b1111100100101010100110100001001111 g
#320
b1111100100101010100110100001010000 "
b11110 b
b1111100100101010100110100001010000 g
b1111 I"
#321
b1111100100101010100110100001010001 "
b11101 b
b1111100100101010100110100001010001 g
b10000 I"
#322
b1111100100101010100110100001010010 "
b11100 b
b1111100100101010100110100001010010 g
b0 I"
#323
b1111100100101010100110100001010011 "
b1111100100101010100110100001010011 g
#324
b1111100100101010100110100001010100 "
b1111100100101010100110100001010100 g
#325
b1111100100101010100110100001010101 "
b1111100100101010100110100001010101 g
#326
b1111100100101010100110100001010110 "
b1111100100101010100110100001010110 g
#327
b1111100100101010100110100001010111 "
b1111100100101010100110100001010111 g
#328
b1111100100101010100110100001011000 "
b1111100100101010100110100001011000 g
#329
b1111100100101010100110100001011001 "
b1111100100101010100110100001011001 g
#330
b1111100100101010100110100001011010 "
b1111100100101010100110100001011010 g
#331
b1111100100101010100110100001011011 "
b1111100100101010100110100001011011 g
#332
b1111100100101010100110100001011100 "
b1111100100101010100110100001011100 g
#333
b1111100100101010100110100001011101 "
b1111100100101010100110100001011101 g
#334
b1111100100101010100110100001011110 "
b1111100100101010100110100001011110 g
#335
b1111100100101010100110100001011111 "
b1111100100101010100110100001011111 g
#336
b1111100100101010100110100001100000 "
b11110 b
b1111100100101010100110100001100000 g
b1111 I"
#337
b1111100100101010100110100001100001 "
b11101 b
b1111100100101010100110100001100001 g
b10000 I"
#338
b1111100100101010100110100001100010 "
b11100 b
b1111100100101010100110100001100010 g
b0 I"
#339
b1111100100101010100110100001100011 "
b1111100100101010100110100001100011 g
#340
b1111100100101010100110100001100100 "
b1111100100101010100110100001100100 g
#341
b1111100100101010100110100001100101 "
b1111100100101010100110100001100101 g
#342
b1111100100101010100110100001100110 "
b1111100100101010100110100001100110 g
#343
b1111100100101010100110100001100111 "
b1111100100101010100110100001100111 g
#344
b1111100100101010100110100001101000 "
b1111100100101010100110100001101000 g
#345
b1111100100101010100110100001101001 "
b1111100100101010100110100001101001 g
#346
b1111100100101010100110100001101010 "
b1111100100101010100110100001101010 g
#347
b1111100100101010100110100001101011 "
b1111100100101010100110100001101011 g
#348
b1111100100101010100110100001101100 "
b1111100100101010100110100001101100 g
#349
b1111100100101010100110100001101101 "
b1111100100101010100110100001101101 g
#350
b1111100100101010100110100001101110 "
b1111100100101010100110100001101110 g
#351
b1111100100101010100110100001101111 "
b1111100100101010100110100001101111 g
#352
b1111100100101010100110100001110000 "
b11110 b
b1111100100101010100110100001110000 g
b1111 I"
#353
b1111100100101010100110100001110001 "
b11101 b
b1111100100101010100110100001110001 g
b10000 I"
#354
b1111100100101010100110100001110010 "
b11100 b
b1111100100101010100110100001110010 g
b0 I"
#355
b1111100100101010100110100001110011 "
b1111100100101010100110100001110011 g
#356
b1111100100101010100110100001110100 "
b1111100100101010100110100001110100 g
#357
b1111100100101010100110100001110101 "
b1111100100101010100110100001110101 g
#358
b1111100100101010100110100001110110 "
b1111100100101010100110100001110110 g
#359
b1111100100101010100110100001110111 "
b1111100100101010100110100001110111 g
#360
b1111100100101010100110100001111000 "
b1111100100101010100110100001111000 g
#361
b1111100100101010100110100001111001 "
b1111100100101010100110100001111001 g
#362
b1111100100101010100110100001111010 "
b1111100100101010100110100001111010 g
#363
b1111100100101010100110100001111011 "
b1111100100101010100110100001111011 g
#364
b1111100100101010100110100001111100 "
b1111100100101010100110100001111100 g
#365
b1111100100101010100110100001111101 "
b1111100100101010100110100001111101 g
#366
b1111100100101010100110100001111110 "
b1111100100101010100110100001111110 g
#367
b1111100100101010100110100001111111 "
b1111100100101010100110100001111111 g
#368
b1111100100101010100110100010000000 "
b11110 b
b1111100100101010100110100010000000 g
b1111 I"
#369
b1111100100101010100110100010000001 "
b11101 b
b1111100100101010100110100010000001 g
b10000 I"
#370
b1111100100101010100110100010000010 "
b11100 b
b1111100100101010100110100010000010 g
b0 I"
#371
b1111100100101010100110100010000011 "
b1111100100101010100110100010000011 g
#372
b1111100100101010100110100010000100 "
b1111100100101010100110100010000100 g
#373
b1111100100101010100110100010000101 "
b1111100100101010100110100010000101 g
#374
b1111100100101010100110100010000110 "
b1111100100101010100110100010000110 g
#375
b1111100100101010100110100010000111 "
b1111100100101010100110100010000111 g
#376
b1111100100101010100110100010001000 "
b1111100100101010100110100010001000 g
#377
b1111100100101010100110100010001001 "
b1111100100101010100110100010001001 g
#378
b1111100100101010100110100010001010 "
b1111100100101010100110100010001010 g
#379
b1111100100101010100110100010001011 "
b1111100100101010100110100010001011 g
#380
b1111100100101010100110100010001100 "
b1111100100101010100110100010001100 g
#381
b1111100100101010100110100010001101 "
b1111100100101010100110100010001101 g
#382
b1111100100101010100110100010001110 "
b1111100100101010100110100010001110 g
#383
b1111100100101010100110100010001111 "
b1111100100101010100110100010001111 g
#384
b1111100100101010100110100010010000 "
b11110 b
b1111100100101010100110100010010000 g
b1111 I"
#385
b1111100100101010100110100010010001 "
b11101 b
b1111100100101010100110100010010001 g
b10000 I"
#386
b1111100100101010100110100010010010 "
b11100 b
b1111100100101010100110100010010010 g
b0 I"
#387
b1111100100101010100110100010010011 "
b1111100100101010100110100010010011 g
#388
b1111100100101010100110100010010100 "
b1111100100101010100110100010010100 g
#389
b1111100100101010100110100010010101 "
b1111100100101010100110100010010101 g
#390
b1111100100101010100110100010010110 "
b1111100100101010100110100010010110 g
#391
b1111100100101010100110100010010111 "
b1111100100101010100110100010010111 g
#392
b1111100100101010100110100010011000 "
b1111100100101010100110100010011000 g
#393
b1111100100101010100110100010011001 "
b1111100100101010100110100010011001 g
#394
b1111100100101010100110100010011010 "
b1111100100101010100110100010011010 g
#395
b1111100100101010100110100010011011 "
b1111100100101010100110100010011011 g
#396
b1111100100101010100110100010011100 "
b1111100100101010100110100010011100 g
#397
b1111100100101010100110100010011101 "
b1111100100101010100110100010011101 g
#398
b1111100100101010100110100010011110 "
b1111100100101010100110100010011110 g
#399
b1111100100101010100110100010011111 "
b1111100100101010100110100010011111 g
#400
b1111100100101010100110100010100000 "
b11110 b
b1111100100101010100110100010100000 g
b1111 I"
